…
```r
# Mean steps per day
print('Mean steps a day: ')
```

```
## [1] "Mean steps a day: "
```

```r
print(sums[,c('date', 'mean.steps')])
```

```
## # A tibble: 53 x 2
##    date       mean.steps
##    <fct>           <dbl>
##  1 2012-10-02      0.438
##  2 2012-10-03     39.4  
##  3 2012-10-04     42.1  
##  4 2012-10-05     46.2  
##  5 2012-10-06     53.5  
##  6 2012-10-07     38.2  
##  7 2012-10-09     44.5  
##  8 2012-10-10     34.4  
##  9 2012-10-11     35.8  
## 10 2012-10-12     60.4  
## # ... with 43 more rows
```
```r
# Median steps per day
print('Median steps taken per day')
```

```
## [1] "Median steps taken per day"
```

```r
print(sums[c('date', 'median.steps')])
```

```
## # A tibble: 53 x 2
##    date       median.steps
##    <fct>             <dbl>
##  1 2012-10-02            0
##  2 2012-10-03            0
##  3 2012-10-04            0
##  4 2012-10-05            0
##  5 2012-10-06            0
##  6 2012-10-07            0
##  7 2012-10-09            0
##  8 2012-10-10            0
##  9 2012-10-11            0
## 10 2012-10-12            0
## # ... with 43 more rows
```
…
